[ {
  "buildOrder" : 625,
  "reportUrl" : "http://localhost:8080/job/ApptaskRegistrationTEST/625/allure",
  "reportName" : "AllureReport",
  "data" : {
    "run" : 11,
    "retry" : 4436
  }
}, {
  "buildOrder" : 624,
  "reportUrl" : "http://localhost:8080/job/ApptaskRegistrationTEST/624/allure",
  "reportName" : "AllureReport",
  "data" : {
    "run" : 11,
    "retry" : 4425
  }
}, {
  "buildOrder" : 623,
  "reportUrl" : "http://localhost:8080/job/ApptaskRegistrationTEST/623/allure",
  "reportName" : "AllureReport",
  "data" : {
    "run" : 11,
    "retry" : 4414
  }
}, {
  "buildOrder" : 622,
  "reportUrl" : "http://localhost:8080/job/ApptaskRegistrationTEST/622/allure",
  "reportName" : "AllureReport",
  "data" : {
    "run" : 11,
    "retry" : 4403
  }
}, {
  "buildOrder" : 621,
  "reportUrl" : "http://localhost:8080/job/ApptaskRegistrationTEST/621/allure",
  "reportName" : "AllureReport",
  "data" : {
    "run" : 11,
    "retry" : 4392
  }
}, {
  "buildOrder" : 620,
  "reportUrl" : "http://localhost:8080/job/ApptaskRegistrationTEST/620/allure",
  "reportName" : "AllureReport",
  "data" : {
    "run" : 11,
    "retry" : 4381
  }
}, {
  "buildOrder" : 619,
  "reportUrl" : "http://localhost:8080/job/ApptaskRegistrationTEST/619/allure",
  "reportName" : "AllureReport",
  "data" : {
    "run" : 11,
    "retry" : 4370
  }
}, {
  "buildOrder" : 618,
  "reportUrl" : "http://localhost:8080/job/ApptaskRegistrationTEST/618/allure",
  "reportName" : "AllureReport",
  "data" : {
    "run" : 11,
    "retry" : 4359
  }
}, {
  "buildOrder" : 617,
  "reportUrl" : "http://localhost:8080/job/ApptaskRegistrationTEST/617/allure",
  "reportName" : "AllureReport",
  "data" : {
    "run" : 11,
    "retry" : 4348
  }
}, {
  "buildOrder" : 616,
  "reportUrl" : "http://localhost:8080/job/ApptaskRegistrationTEST/616/allure",
  "reportName" : "AllureReport",
  "data" : {
    "run" : 11,
    "retry" : 4337
  }
}, {
  "buildOrder" : 615,
  "reportUrl" : "http://localhost:8080/job/ApptaskRegistrationTEST/615/allure",
  "reportName" : "AllureReport",
  "data" : {
    "run" : 11,
    "retry" : 4326
  }
}, {
  "buildOrder" : 614,
  "reportUrl" : "http://localhost:8080/job/ApptaskRegistrationTEST/614/allure",
  "reportName" : "AllureReport",
  "data" : {
    "run" : 11,
    "retry" : 4315
  }
}, {
  "buildOrder" : 613,
  "reportUrl" : "http://localhost:8080/job/ApptaskRegistrationTEST/613/allure",
  "reportName" : "AllureReport",
  "data" : {
    "run" : 11,
    "retry" : 4304
  }
}, {
  "buildOrder" : 612,
  "reportUrl" : "http://localhost:8080/job/ApptaskRegistrationTEST/612/allure",
  "reportName" : "AllureReport",
  "data" : {
    "run" : 11,
    "retry" : 4293
  }
}, {
  "buildOrder" : 611,
  "reportUrl" : "http://localhost:8080/job/ApptaskRegistrationTEST/611/allure",
  "reportName" : "AllureReport",
  "data" : {
    "run" : 11,
    "retry" : 4282
  }
}, {
  "buildOrder" : 610,
  "reportUrl" : "http://localhost:8080/job/ApptaskRegistrationTEST/610/allure",
  "reportName" : "AllureReport",
  "data" : {
    "run" : 11,
    "retry" : 4271
  }
}, {
  "buildOrder" : 609,
  "reportUrl" : "http://localhost:8080/job/ApptaskRegistrationTEST/609/allure",
  "reportName" : "AllureReport",
  "data" : {
    "run" : 11,
    "retry" : 4260
  }
}, {
  "buildOrder" : 608,
  "reportUrl" : "http://localhost:8080/job/ApptaskRegistrationTEST/608/allure",
  "reportName" : "AllureReport",
  "data" : {
    "run" : 11,
    "retry" : 4249
  }
}, {
  "buildOrder" : 607,
  "reportUrl" : "http://localhost:8080/job/ApptaskRegistrationTEST/607/allure",
  "reportName" : "AllureReport",
  "data" : {
    "run" : 11,
    "retry" : 4238
  }
}, {
  "buildOrder" : 606,
  "reportUrl" : "http://localhost:8080/job/ApptaskRegistrationTEST/606/allure",
  "reportName" : "AllureReport",
  "data" : {
    "run" : 11,
    "retry" : 4227
  }
} ]