{
  "uid" : "ab17fc5a4eb3bca4b216b548c7f9fcbc",
  "name" : "timeline",
  "children" : [ {
    "name" : "appfox-moscow",
    "children" : [ {
      "name" : "21184-MainThread",
      "children" : [ {
        "name" : "test_ValidationLengthPassword",
        "uid" : "5027875f6a8f6d72",
        "parentUid" : "cdd35d49886d732c59a8045e79babdfa",
        "status" : "passed",
        "time" : {
          "start" : 1629877911975,
          "stop" : 1629877912783,
          "duration" : 808
        },
        "flaky" : true,
        "parameters" : [ ]
      }, {
        "name" : "test_SuccessfulRegistration",
        "uid" : "3a28f38ac0d5ec49",
        "parentUid" : "cdd35d49886d732c59a8045e79babdfa",
        "status" : "passed",
        "time" : {
          "start" : 1629877885261,
          "stop" : 1629877887884,
          "duration" : 2623
        },
        "flaky" : true,
        "parameters" : [ ]
      }, {
        "name" : "test_ValidateWrongLastName",
        "uid" : "a26e5acc8fa20d20",
        "parentUid" : "cdd35d49886d732c59a8045e79babdfa",
        "status" : "passed",
        "time" : {
          "start" : 1629877921835,
          "stop" : 1629877922644,
          "duration" : 809
        },
        "flaky" : true,
        "parameters" : [ ]
      }, {
        "name" : "test_ValidationWrongEmail",
        "uid" : "7c92bbe71a91b498",
        "parentUid" : "cdd35d49886d732c59a8045e79babdfa",
        "status" : "passed",
        "time" : {
          "start" : 1629877897132,
          "stop" : 1629877897867,
          "duration" : 735
        },
        "flaky" : true,
        "parameters" : [ ]
      }, {
        "name" : "test_Logo",
        "uid" : "880fc66db30d781",
        "parentUid" : "cdd35d49886d732c59a8045e79babdfa",
        "status" : "passed",
        "time" : {
          "start" : 1629877880988,
          "stop" : 1629877881095,
          "duration" : 107
        },
        "flaky" : true,
        "parameters" : [ ]
      }, {
        "name" : "test_ValidationExistEmail",
        "uid" : "571c72c460c122f2",
        "parentUid" : "cdd35d49886d732c59a8045e79babdfa",
        "status" : "passed",
        "time" : {
          "start" : 1629877926812,
          "stop" : 1629877927765,
          "duration" : 953
        },
        "flaky" : true,
        "parameters" : [ ]
      }, {
        "name" : "test_ValidatePrivacyPolicy",
        "uid" : "f24f09827c5a66ac",
        "parentUid" : "cdd35d49886d732c59a8045e79babdfa",
        "status" : "passed",
        "time" : {
          "start" : 1629877892062,
          "stop" : 1629877893001,
          "duration" : 939
        },
        "flaky" : true,
        "parameters" : [ ]
      }, {
        "name" : "test_ValidationLastName",
        "uid" : "58baa6a9a5348fbd",
        "parentUid" : "cdd35d49886d732c59a8045e79babdfa",
        "status" : "passed",
        "time" : {
          "start" : 1629877902159,
          "stop" : 1629877902883,
          "duration" : 724
        },
        "flaky" : true,
        "parameters" : [ ]
      }, {
        "name" : "test_ValidationFirstName",
        "uid" : "ebdd9915f5f73955",
        "parentUid" : "cdd35d49886d732c59a8045e79babdfa",
        "status" : "passed",
        "time" : {
          "start" : 1629877907075,
          "stop" : 1629877907818,
          "duration" : 743
        },
        "flaky" : true,
        "parameters" : [ ]
      }, {
        "name" : "test_ValidateMatchingPasswords",
        "uid" : "f899c3e389b67474",
        "parentUid" : "cdd35d49886d732c59a8045e79babdfa",
        "status" : "passed",
        "time" : {
          "start" : 1629877931866,
          "stop" : 1629877932644,
          "duration" : 778
        },
        "flaky" : true,
        "parameters" : [ ]
      }, {
        "name" : "test_ValidateWrongFirstName",
        "uid" : "a6d50dbfdf0e2b28",
        "parentUid" : "cdd35d49886d732c59a8045e79babdfa",
        "status" : "passed",
        "time" : {
          "start" : 1629877916885,
          "stop" : 1629877917694,
          "duration" : 809
        },
        "flaky" : true,
        "parameters" : [ ]
      } ],
      "uid" : "cdd35d49886d732c59a8045e79babdfa"
    } ],
    "uid" : "31aa0d680a70dbfe0e32d85e7da439da"
  } ]
}